keycard_id,color_id,breed_id,birth_at
A756737,7,3,2014-10-24T00:00:00
A749769,4,3,2017-04-27T00:00:00
A725407,2,4,2016-04-01T00:00:00
A728864,8,3,2015-06-09T00:00:00
A723189,4,1,2014-03-28T00:00:00
A726579,4,6,2016-03-21T00:00:00
A724527,10,6,2015-04-19T00:00:00
A726629,8,7,2016-04-10T00:00:00
A723824,1,10,2011-04-07T00:00:00
A723180,1,2,2012-03-28T00:00:00
A723137,2,1,2016-02-27T00:00:00
A748941,2,8,2017-04-08T00:00:00
A723779,4,4,2013-04-06T00:00:00
A723760,1,7,2016-02-06T00:00:00
A723595,6,1,2016-03-19T00:00:00
A723570,5,2,2014-04-03T00:00:00
A725405,5,4,2016-04-01T00:00:00
A745811,6,10,2015-03-24T00:00:00
A725687,10,4,2016-04-01T00:00:00
A723496,4,2,2016-01-30T00:00:00
