id,name,species_id
1,Domestic Shorthair Mix,1
2,Domestic Medium Hair Mix,1
3,Siamese Mix,1
4,Domestic Longhair Mix,1
5,Angora Mix,1
6,Domestic Medium Hair,1
7,Domestic Shorthair,1
8,Russian Blue Mix,1
9,Snowshoe,1
10,Maine Coon Mix,1
11,Domestic Medium Hair/Maine Coon,1
12,Norwegian Forest Cat Mix,1
13,Himalayan Mix,1
14,Manx Mix,1
15,Devon Rex Mix,1
16,Ragdoll Mix,1
17,Siamese,1
18,Snowshoe Mix,1
19,Munchkin Shorthair Mix,1
20,Domestic Shorthair/Abyssinian,1
21,Oriental Sh Mix,1
22,Turkish Angora Mix,1
23,Persian,1
24,Ragdoll,1
25,Bombay Mix,1
26,Manx/Domestic Shorthair,1
27,Bengal Mix,1
28,Exotic Shorthair Mix,1
29,Domestic Longhair,1
30,Maine Coon,1
31,Cymric Mix,1
32,British Shorthair Mix,1
33,Japanese Bobtail Mix,1
34,American Curl Shorthair Mix,1
35,Russian Blue,1
36,Domestic Longhair/Persian,1
37,British Shorthair,1
38,American Shorthair Mix,1
39,Tonkinese Mix,1
40,Persian Mix,1
41,Snowshoe/Ragdoll,1
42,Cornish Rex Mix,1
43,Munchkin Longhair Mix,1
44,Birman Mix,1
45,Bengal/Domestic Shorthair,1
46,Domestic Shorthair/Maine Coon,1
47,Himalayan,1
48,Balinese Mix,1
49,Sphynx,1
50,Domestic Medium Hair/Siamese,1
51,Domestic Shorthair/Domestic Shorthair,1
52,Domestic Medium Hair/Manx,1
53,Japanese Bobtail/American Curl Shorthair,1
54,American Curl Shorthair,1
55,American Curl Shorthair/Siamese,1
56,Scottish Fold/Domestic Shorthair,1
57,Chihuahua Shorthair/Australian Cattle Dog,2
58,Labrador Retriever Mix,2
59,Australian Shepherd Mix,2
60,Pit Bull Mix,2
61,Bloodhound Mix,2
62,Redbone Hound Mix,2
63,English Springer Spaniel/Labrador Retriever,2
64,Border Collie Mix,2
65,Bull Terrier Mix,2
66,Chihuahua Shorthair Mix,2
67,Boxer Mix,2
68,Pit Bull,2
69,Dutch Shepherd Mix,2
70,Siberian Husky Mix,2
71,Pug/Chihuahua Shorthair,2
72,Toy Poodle Mix,2
73,Queensland Heeler Mix,2
74,Labrador Retriever/Border Collie,2
75,Miniature Poodle/Maltese,2
76,Cairn Terrier Mix,2
77,German Shepherd Mix,2
78,Catahoula Mix,2
79,Rat Terrier Mix,2
80,Border Collie/Labrador Retriever,2
81,Australian Cattle Dog Mix,2
82,Miniature Schnauzer Mix,2
83,Catahoula,2
84,Staffordshire Mix,2
85,Dachshund Wirehair Mix,2
86,Great Pyrenees Mix,2
87,Chinese Sharpei/Chow Chow,2
88,Chihuahua Shorthair/Pug,2
89,Miniature Poodle Mix,2
90,American Bulldog Mix,2
91,Dachshund/Chihuahua Shorthair,2
92,American Staffordshire Terrier Mix,2
93,Bull Terrier,2
94,Labrador Retriever/Pit Bull,2
95,Bloodhound,2
96,Yorkshire Terrier/Maltese,2
97,English Bulldog Mix,2
98,Beagle Mix,2
99,Pointer Mix,2
100,Pug Mix,2
101,American Foxhound Mix,2
102,Pit Bull/Bulldog,2
103,Chihuahua Longhair Mix,2
104,Manchester Terrier/Chihuahua Shorthair,2
105,Bearded Collie Mix,2
106,Plott Hound Mix,2
107,Yorkshire Terrier Mix,2
108,Australian Kelpie Mix,2
109,French Bulldog,2
110,Cardigan Welsh Corgi Mix,2
111,Pembroke Welsh Corgi Mix,2
112,Dalmatian Mix,2
113,Blue Lacy/Cardigan Welsh Corgi,2
114,Chihuahua Shorthair/Pekingese,2
115,Cairn Terrier/Miniature Schnauzer,2
116,Beagle/Cardigan Welsh Corgi,2
117,Jack Russell Terrier Mix,2
118,Labrador Retriever/German Shepherd,2
119,Pit Bull/Rhod Ridgeback,2
120,Pit Bull/Labrador Retriever,2
121,Basenji/Labrador Retriever,2
122,Dachshund,2
123,Schnauzer Giant Mix,2
124,Cocker Spaniel/Dachshund,2
125,Boxer/Labrador Retriever,2
126,Miniature Schnauzer,2
127,Rhod Ridgeback Mix,2
128,Black Mouth Cur Mix,2
129,Jack Russell Terrier/Maltese,2
130,Jack Russell Terrier/Chihuahua Shorthair,2
131,Shih Tzu Mix,2
132,Black Mouth Cur/German Shepherd,2
133,Chow Chow/Pomeranian,2
134,Pekingese Mix,2
135,Smooth Fox Terrier Mix,2
136,Pit Bull/Boxer,2
137,Chow Chow Mix,2
138,Chihuahua Shorthair/Rat Terrier,2
139,Chihuahua Shorthair/Dachshund,2
140,Australian Kelpie/German Shepherd,2
141,Collie Smooth,2
142,Akita Mix,2
143,Border Collie/German Shepherd,2
144,Basset Hound,2
145,Chihuahua Shorthair/Mexican Hairless,2
146,Rottweiler Mix,2
147,Dachshund Mix,2
148,Chihuahua Shorthair/Pit Bull,2
149,Bullmastiff Mix,2
150,English Bulldog,2
151,German Shepherd/Alaskan Husky,2
152,Miniature Pinscher,2
153,Anatol Shepherd Mix,2
154,Yorkshire Terrier/Chihuahua Shorthair,2
155,Shih Tzu/Dachshund,2
156,Great Pyrenees/Labrador Retriever,2
157,Jack Russell Terrier/Beagle,2
158,Dachshund Longhair Mix,2
159,Doberman Pinsch Mix,2
160,Queensland Heeler,2
161,Labrador Retriever/Chow Chow,2
162,Pekingese/Maltese,2
163,Miniature Pinscher Mix,2
164,Pug,2
165,Shih Tzu/Chihuahua Shorthair,2
166,Basenji Mix,2
167,German Shepherd,2
168,Old English Bulldog Mix,2
169,German Shepherd/Australian Shepherd,2
170,Australian Cattle Dog/Boxer,2
171,Feist/Beagle,2
172,Norwich Terrier Mix,2
173,Tibetan Spaniel Mix,2
174,Dachshund/Pit Bull,2
175,Standard Schnauzer Mix,2
176,West Highland Mix,2
177,Flat Coat Retriever Mix,2
178,Lhasa Apso Mix,2
179,Pomeranian Mix,2
180,Bluetick Hound Mix,2
181,Akbash Mix,2
182,Golden Retriever Mix,2
183,Chihuahua Shorthair,2
184,Australian Shepherd/Cardigan Welsh Corgi,2
185,Australian Cattle Dog/Pit Bull,2
186,Rottweiler,2
187,Cairn Terrier/Miniature Poodle,2
188,Bichon Frise Mix,2
189,Black/Tan Hound Mix,2
190,St. Bernard Smooth Coat Mix,2
191,Chihuahua Longhair,2
192,Pit Bull/Rat Terrier,2
193,American Eskimo,2
194,Labrador Retriever/Rottweiler,2
195,Italian Greyhound Mix,2
196,Swedish Vallhund Mix,2
197,American Staffordshire Terrier,2
198,Australian Cattle Dog/Labrador Retriever,2
199,Alaskan Husky Mix,2
200,Australian Cattle Dog,2
201,Beagle/Labrador Retriever,2
202,Beagle,2
203,Boykin Span/Cocker Spaniel,2
204,Boxer/Chinese Sharpei,2
205,Feist Mix,2
206,English Springer Spaniel,2
207,Bruss Griffon Mix,2
208,Pug/Beagle,2
209,Norfolk Terrier Mix,2
210,Australian Cattle Dog/Australian Shepherd,2
211,Weimaraner Mix,2
212,Australian Cattle Dog/Bull Terrier,2
213,Greyhound/Saluki,2
214,Border Terrier Mix,2
215,Lhasa Apso,2
216,Chinese Sharpei/Beagle,2
217,Labrador Retriever/Great Pyrenees,2
218,Shih Tzu/Toy Poodle,2
219,Staffordshire/Boxer,2
220,Mastiff,2
221,American Pit Bull Terrier Mix,2
222,Toy Fox Terrier Mix,2
223,Pointer/Labrador Retriever,2
224,Parson Russell Terrier Mix,2
225,Chinese Crested Mix,2
226,Pit Bull/German Shepherd,2
227,Pekingese/Pomeranian,2
228,Border Collie,2
229,Blue Lacy Mix,2
230,Jack Russell Terrier,2
231,German Shepherd/Great Pyrenees,2
232,Miniature Schnauzer/Cairn Terrier,2
233,Queensland Heeler/Australian Cattle Dog,2
234,Miniature Poodle/Miniature Schnauzer,2
235,Labrador Retriever,2
236,Cocker Spaniel,2
237,Cocker Spaniel/Miniature Poodle,2
238,Welsh Terrier Mix,2
239,Shetland Sheepdog Mix,2
240,Maltese/Miniature Poodle,2
241,Yorkshire Terrier/Miniature Poodle,2
242,Beagle/German Shepherd,2
243,Standard Schnauzer,2
244,Miniature Poodle/Bichon Frise,2
245,Boston Terrier Mix,2
246,Chinese Sharpei Mix,2
247,Maltese Mix,2
248,Rottweiler/German Shepherd,2
249,Golden Retriever,2
250,Miniature Poodle,2
251,Flat Coat Retriever/Labrador Retriever,2
252,Catahoula/Plott Hound,2
253,Basset Hound/Labrador Retriever,2
254,Beagle/Dachshund,2
255,Silky Terrier Mix,2
256,Labrador Retriever/Australian Shepherd,2
257,Siberian Husky,2
258,Australian Cattle Dog/German Shepherd,2
259,Mexican Hairless Mix,2
260,German Shorthair Pointer Mix,2
261,Carolina Dog Mix,2
262,Queensland Heeler/Dachshund,2
263,Dachshund/Rat Terrier,2
264,Basset Hound Mix,2
265,Wire Hair Fox Terrier Mix,2
266,Cocker Spaniel Mix,2
267,German Shepherd/Labrador Retriever,2
268,Harrier Mix,2
269,German Shepherd/Chow Chow,2
270,Pit Bull/Catahoula,2
271,Miniature Schnauzer/Miniature Poodle,2
272,Queensland Heeler/Great Pyrenees,2
273,Boston Terrier/Chihuahua Shorthair,2
274,Pit Bull/Dachshund,2
275,Rottweiler/Siberian Husky,2
276,Jack Russell Terrier/Italian Greyhound,2
277,Soft Coated Wheaten Terrier Mix,2
278,Boxer,2
279,Carolina Dog/Border Collie,2
280,Norwich Terrier/Yorkshire Terrier,2
281,Miniature Poodle/Dachshund,2
282,Bernese Mountain Dog Mix,2
283,Chihuahua Shorthair/Jack Russell Terrier,2
284,Weimaraner,2
285,Chihuahua Shorthair/Rottweiler,2
286,Labrador Retriever/Beagle,2
287,Norwich Terrier,2
288,Catahoula/English Coonhound,2
289,Great Dane Mix,2
290,Whippet/Chihuahua Shorthair,2
291,Basset Hound/Pit Bull,2
292,Lhasa Apso/Miniature Poodle,2
293,Cavalier Span/Border Collie,2
294,Black Mouth Cur,2
295,Bulldog Mix,2
296,Manchester Terrier Mix,2
297,Miniature Poodle/Chihuahua Shorthair,2
298,Pug/French Bulldog,2
299,American Bulldog/Pit Bull,2
300,Catahoula/Pit Bull,2
301,Mastiff Mix,2
302,Cavalier Span Mix,2
303,Shih Tzu,2
304,Shiba Inu Mix,2
305,Collie Smooth Mix,2
306,Pit Bull/Australian Cattle Dog,2
307,Labrador Retriever/Golden Retriever,2
308,Lhasa Apso/Shih Tzu,2
309,Chihuahua Shorthair/Beagle,2
310,Bull Terrier Miniature Mix,2
311,Border Collie/Queensland Heeler,2
312,Alaskan Malamute Mix,2
313,Chow Chow/Pit Bull,2
314,Japanese Chin Mix,2
315,Akita/Border Collie,2
316,German Pinscher Mix,2
317,Boxer/Pit Bull,2
318,Cardigan Welsh Corgi/Jack Russell Terrier,2
319,Anatol Shepherd/Labrador Retriever,2
320,Chihuahua Shorthair/Shiba Inu,2
321,Yorkshire Terrier/Toy Poodle,2
322,Chihuahua Shorthair/Cocker Spaniel,2
323,Papillon Mix,2
324,Cardigan Welsh Corgi/American Eskimo,2
325,Pit Bull/Pointer,2
326,Airedale Terrier Mix,2
327,Siberian Husky/Border Collie,2
328,Yorkshire Terrier/Australian Terrier,2
329,Glen Of Imaal Mix,2
330,Redbone Hound/Labrador Retriever,2
331,Labrador Retriever/Rhod Ridgeback,2
332,American Bulldog,2
333,Greyhound Mix,2
334,Australian Cattle Dog/Siberian Husky,2
335,Labrador Retriever/Pointer,2
336,Standard Poodle Mix,2
337,Siberian Husky/Australian Cattle Dog,2
338,Australian Cattle Dog/Cardigan Welsh Corgi,2
339,Whippet/Anatol Shepherd,2
340,Presa Canario Mix,2
341,Golden Retriever/Bearded Collie,2
342,German Shepherd/Pit Bull,2
343,Collie Rough/Anatol Shepherd,2
344,Australian Shepherd/Chow Chow,2
345,Basenji/Chihuahua Shorthair,2
346,Chihuahua Longhair/Dachshund Longhair,2
347,Harrier/Labrador Retriever,2
348,Yorkshire Terrier,2
349,Golden Retriever/German Shepherd,2
350,Brittany Mix,2
351,Whippet Mix,2
352,Labrador Retriever/Chesa Bay Retr,2
353,Dachshund/Pug,2
354,English Shepherd Mix,2
355,Great Pyrenees,2
356,Labrador Retriever/St. Bernard Rough Coat,2
357,Basset Hound/Australian Shepherd,2
358,Picardy Sheepdog Mix,2
359,Doberman Pinsch,2
360,Havanese,2
361,Finnish Spitz Mix,2
362,Boxer/Great Pyrenees,2
363,Pembroke Welsh Corgi/Chihuahua Longhair,2
364,Bulldog/Labrador Retriever,2
365,Lhasa Apso/Toy Poodle,2
366,Labrador Retriever/Australian Cattle Dog,2
367,Dachshund Wirehair/Miniature Schnauzer,2
368,Welsh Terrier,2
369,Border Collie/Pembroke Welsh Corgi,2
370,Pointer/Pit Bull,2
371,Labrador Retriever/Dachshund,2
372,Dachshund/Beagle,2
373,Beagle/Australian Cattle Dog,2
374,Chihuahua Shorthair/Miniature Pinscher,2
375,Chihuahua Shorthair/Yorkshire Terrier,2
376,Jack Russell Terrier/Dachshund,2
377,Bulldog/Pit Bull,2
378,Labrador Retriever/Labrador Retriever,2
379,Beagle/Basset Hound,2
380,Yorkshire Terrier/Lhasa Apso,2
381,West Highland/Maltese,2
382,Labrador Retriever/Boxer,2
383,Border Collie/Great Pyrenees,2
384,Chinese Sharpei,2
385,Great Pyrenees/German Shepherd,2
386,Chinese Sharpei/Pit Bull,2
387,Cavalier Span/Pug,2
388,Border Collie/Chow Chow,2
389,Pomeranian,2
390,Pit Bull/Rottweiler,2
391,Maltese,2
392,Collie Rough Mix,2
393,Doberman Pinsch/Black/Tan Hound,2
394,Dalmatian/Pit Bull,2
395,Rottweiler/Labrador Retriever,2
396,Siberian Husky/Alaskan Malamute,2
397,Shiba Inu/Australian Kelpie,2
398,Tibetan Terrier Mix,2
399,English Cocker Spaniel Mix,2
400,Labrador Retriever/Jack Russell Terrier,2
401,Pointer/Boxer,2
402,Shih Tzu/Bruss Griffon,2
403,Chihuahua Shorthair/Miniature Poodle,2
404,Miniature Pinscher/Pug,2
405,Pug/Miniature Pinscher,2
406,Chihuahua Longhair/Cardigan Welsh Corgi,2
407,Chihuahua Shorthair/Dachshund Wirehair,2
408,Scottish Terrier Mix,2
409,Vizsla,2
410,French Bulldog Mix,2
411,Vizsla Mix,2
412,Staffordshire/Basset Hound,2
413,Whippet,2
414,Cairn Terrier/Italian Greyhound,2
415,Affenpinscher Mix,2
416,Canaan Dog Mix,2
417,Cardigan Welsh Corgi,2
418,Border Collie/Akita,2
419,Great Pyrenees/Pointer,2
420,Gordon Setter Mix,2
421,Hovawart,2
422,Pug/Cocker Spaniel,2
423,Anatol Shepherd,2
424,Chinese Sharpei/Labrador Retriever,2
425,Pomeranian/Chihuahua Longhair,2
426,Chihuahua Longhair/Jack Russell Terrier,2
427,Australian Cattle Dog/Queensland Heeler,2
428,Great Dane/Boxer,2
429,Black/Tan Hound/Great Dane,2
430,Rat Terrier/Chihuahua Shorthair,2
431,Cairn Terrier,2
432,Australian Cattle Dog/Border Collie,2
433,Black/Tan Hound/Labrador Retriever,2
434,Smooth Fox Terrier/Chihuahua Shorthair,2
435,Lhasa Apso/Cocker Spaniel,2
436,Finnish Spitz,2
437,Chow Chow/German Shepherd,2
438,Siberian Husky/German Shepherd,2
439,Dogue De Bordeaux Mix,2
440,Mastiff/Rottweiler,2
441,Jack Russell Terrier/Miniature Poodle,2
442,Pointer,2
443,American Bulldog/Boxer,2
444,Labrador Retriever/Vizsla,2
445,Labrador Retriever/Great Dane,2
446,German Shepherd/Plott Hound,2
447,Great Pyrenees/Chow Chow,2
448,Catahoula/Staffordshire,2
449,Chihuahua Longhair/Cairn Terrier,2
450,Australian Terrier Mix,2
451,Dachshund/Jack Russell Terrier,2
452,German Shepherd/Bull Terrier,2
453,Belgian Malinois Mix,2
454,St. Bernard Rough Coat,2
455,Pit Bull/Chinese Sharpei,2
456,Chihuahua Shorthair/French Bulldog,2
457,Cairn Terrier/Chihuahua Shorthair,2
458,Pembroke Welsh Corgi/Chihuahua Shorthair,2
459,Golden Retriever/Standard Poodle,2
460,Doberman Pinsch/German Shepherd,2
461,Jack Russell Terrier/Rat Terrier,2
462,English Coonhound Mix,2
463,Yorkshire Terrier/Soft Coated Wheaten Terrier,2
464,Boston Terrier,2
465,Australian Shepherd/Labrador Retriever,2
466,Australian Shepherd,2
467,Miniature Pinscher/Chihuahua Shorthair,2
468,Labrador Retriever/Doberman Pinsch,2
469,Coton De Tulear Mix,2
470,Dachshund Longhair,2
471,Labrador Retriever/Dalmatian,2
472,Labrador Retriever/Plott Hound,2
473,Labrador Retriever/Whippet,2
474,Pomeranian/Chihuahua Shorthair,2
475,Akita,2
476,Havanese Mix,2
477,Pharaoh Hound Mix,2
478,Shiba Inu,2
479,Border Collie/Catahoula,2
480,Miniature Schnauzer/Shih Tzu,2
481,Weimaraner/Plott Hound,2
482,Rat Terrier/Beagle,2
483,Treeing Cur Mix,2
484,Anatol Shepherd/Black Mouth Cur,2
485,West Highland,2
486,Beauceron Mix,2
487,Wire Hair Fox Terrier/Dachshund,2
488,Pit Bull/Basset Hound,2
489,Labrador Retriever/Anatol Shepherd,2
490,Rhod Ridgeback/Pointer,2
491,Chihuahua Longhair/Border Terrier,2
492,Boston Terrier/Pit Bull,2
493,Great Dane,2
494,Pbgv Mix,2
495,Cairn Terrier/Yorkshire Terrier,2
496,Cocker Spaniel/Basset Hound,2
497,Mastiff/Anatol Shepherd,2
498,Yorkshire Terrier/Chihuahua Longhair,2
499,Labrador Retriever/Australian Kelpie,2
500,Beagle/Chihuahua Shorthair,2
501,Pit Bull/Beagle,2
502,Maltese/Yorkshire Terrier,2
503,Treeing Walker Coonhound/Dachshund,2
504,Australian Shepherd/Standard Poodle,2
505,Collie Rough/German Shepherd,2
506,Treeing Walker Coonhound Mix,2
507,Pembroke Welsh Corgi/German Shepherd,2
508,German Wirehaired Pointer Mix,2
509,Basset Hound/Beagle,2
510,German Shepherd/Siberian Husky,2
511,Chinese Sharpei/Pointer,2
512,Field Spaniel Mix,2
513,Shih Tzu/Maltese,2
514,Collie Smooth/Miniature Poodle,2
515,Plott Hound,2
516,Silky Terrier,2
517,German Shepherd/Australian Cattle Dog,2
518,Shih Tzu/Pit Bull,2
519,Staffordshire/Beagle,2
520,Dachshund/Border Collie,2
521,Smooth Fox Terrier/Cardigan Welsh Corgi,2
522,Border Collie/Alaskan Husky,2
523,American Eskimo Mix,2
524,Chihuahua Longhair/Cavalier Span,2
525,Boston Terrier/Dachshund,2
526,Labrador Retriever/Catahoula,2
527,Sussex Span Mix,2
528,Labrador Retriever/Pharaoh Hound,2
529,Great Pyrenees/Anatol Shepherd,2
530,Labrador Retriever/Queensland Heeler,2
531,Chinese Sharpei/Rat Terrier,2
532,Boxer/Plott Hound,2
533,Black Mouth Cur/Pit Bull,2
534,Bulldog,2
535,Chow Chow,2
536,Greyhound,2
537,Labrador Retriever/Basset Hound,2
538,Mastiff/Boxer,2
539,Cavalier Span/Chihuahua Longhair,2
540,Cavalier Span,2
541,Beagle/Catahoula,2
542,Blue Lacy,2
543,Norfolk Terrier/Lhasa Apso,2
544,West Highland/Miniature Poodle,2
545,Shih Tzu/Miniature Schnauzer,2
546,Australian Cattle Dog/Dachshund,2
547,Pit Bull/Chihuahua Shorthair,2
548,Pit Bull/Jindo,2
549,Basset Hound/Boxer,2
550,Basset Hound/Pointer,2
551,Schipperke Mix,2
552,Great Pyrenees/Plott Hound,2
553,Jack Russell Terrier/Australian Cattle Dog,2
554,Rat Terrier/Labrador Retriever,2
555,Lowchen/Yorkshire Terrier,2
556,Scottish Terrier,2
557,Boerboel Mix,2
558,Catahoula/Whippet,2
559,Basset Hound/Border Collie,2
560,Dachshund/Labrador Retriever,2
561,Chihuahua Shorthair/Pomeranian,2
562,Chihuahua Longhair/Pomeranian,2
563,Miniature Schnauzer/Toy Poodle,2
564,Australian Cattle Dog/Beagle,2
565,Basset Hound/Chinese Sharpei,2
566,Labrador Retriever/Siberian Husky,2
567,Labrador Retriever/Miniature Poodle,2
568,Miniature Poodle/Cairn Terrier,2
569,Shetland Sheepdog/Border Collie,2
570,Labrador Retriever/Chinese Sharpei,2
571,Miniature Pinscher/Dachshund,2
572,Chihuahua Longhair/Norfolk Terrier,2
573,Anatol Shepherd/German Shepherd,2
574,Yorkshire Terrier/Miniature Schnauzer,2
575,Chihuahua Longhair/Dachshund,2
576,Standard Schnauzer/German Shepherd,2
577,English Coonhound/Beagle,2
578,Lakeland Terrier Mix,2
579,German Shepherd/Rottweiler,2
580,Chihuahua Longhair/Yorkshire Terrier,2
581,Chihuahua Shorthair/Pembroke Welsh Corgi,2
582,Irish Wolfhound Mix,2
583,Samoyed Mix,2
584,Chihuahua Shorthair/Labrador Retriever,2
585,Grand Basset Griffon Vendeen Mix,2
586,Chihuahua Shorthair/Italian Greyhound,2
587,Miniature Poodle/Cocker Spaniel,2
588,American Pit Bull Terrier,2
589,Australian Cattle Dog/Staffordshire,2
590,Dachshund Wirehair/Border Terrier,2
591,Mastiff/Labrador Retriever,2
592,Dalmatian/Labrador Retriever,2
593,American Staffordshire Terrier/Boxer,2
594,Boykin Span Mix,2
595,Jindo/Shiba Inu,2
596,Soft Coated Wheaten Terrier,2
597,Irish Setter Mix,2
598,Miniature Poodle/Lhasa Apso,2
599,Catahoula/Rottweiler,2
600,Great Pyrenees/Border Collie,2
601,Yorkshire Terrier/Jack Russell Terrier,2
602,German Shepherd/Alaskan Malamute,2
603,Queensland Heeler/Pit Bull,2
604,Landseer,2
605,Chihuahua Shorthair/Norfolk Terrier,2
606,American Bulldog/Mastiff,2
607,Smooth Fox Terrier/Jack Russell Terrier,2
608,Havanese/Miniature Poodle,2
609,Shih Tzu/Cocker Spaniel,2
610,Australian Shepherd/Border Collie,2
611,American Eskimo/Alaskan Husky,2
612,Staffordshire/Labrador Retriever,2
613,Boxer/Bullmastiff,2
614,Border Collie/Australian Cattle Dog,2
615,Irish Terrier Mix,2
616,Australian Kelpie/Australian Cattle Dog,2
617,Pekingese,2
618,Ibizan Hound Mix,2
619,German Shepherd/Golden Retriever,2
620,Catahoula/Labrador Retriever,2
621,Wirehaired Pointing Griffon Mix,2
622,Shih Tzu/Chihuahua Longhair,2
623,Dachshund/Blue Lacy,2
624,Akita/Australian Cattle Dog,2
625,Neapolitan Mastiff/Pit Bull,2
626,Saluki,2
627,Border Collie/Boxer,2
628,Catahoula/Siberian Husky,2
629,Tibetan Spaniel/Beagle,2
630,Rottweiler/Pit Bull,2
631,Beagle/Plott Hound,2
632,Otterhound Mix,2
633,Blue Lacy/Pit Bull,2
634,Standard Poodle,2
635,Chihuahua Shorthair/Cardigan Welsh Corgi,2
636,Australian Cattle Dog/Pembroke Welsh Corgi,2
637,Welsh Springer Spaniel,2
638,Redbone Hound/Rhod Ridgeback,2
639,Weimaraner/Pit Bull,2
640,Rhod Ridgeback/Australian Cattle Dog,2
641,Boxer/Australian Cattle Dog,2
642,Dachshund/Boxer,2
643,Maltese/Toy Poodle,2
644,Labrador Retriever/Shiba Inu,2
645,Anatol Shepherd/Great Pyrenees,2
646,Dachshund/Australian Cattle Dog,2
647,Samoyed,2
648,Rhod Ridgeback,2
649,Standard Schnauzer/Miniature Poodle,2
650,Rhod Ridgeback/Boxer,2
651,Greyhound/Pointer,2
652,Dachshund Wirehair,2
653,German Shepherd/Whippet,2
654,Vizsla/Labrador Retriever,2
655,Great Dane/Labrador Retriever,2
656,Dutch Shepherd/Labrador Retriever,2
657,Catahoula/Beagle,2
658,Cairn Terrier/Chihuahua Longhair,2
659,Anatol Shepherd/Pit Bull,2
660,Australian Kelpie,2
661,Border Collie/Mastiff,2
662,Boxer/Beagle,2
663,Belgian Sheepdog Mix,2
664,Shih Tzu/Pug,2
665,Patterdale Terr Mix,2
666,English Foxhound/Smooth Fox Terrier,2
667,Australian Kelpie/Bull Terrier,2
668,Rottweiler/English Bulldog,2
669,German Shepherd/Australian Kelpie,2
670,Pointer/German Shorthair Pointer,2
671,Toy Poodle,2
672,Pug/Chihuahua Longhair,2
673,Harrier,2
674,Canaan Dog/English Springer Spaniel,2
675,Staffordshire,2
676,Australian Kelpie/Border Collie,2
677,Rhod Ridgeback/Labrador Retriever,2
678,Siberian Husky/Labrador Retriever,2
679,Plott Hound/Labrador Retriever,2
680,Labrador Retriever/Black/Tan Hound,2
681,Pointer/Staffordshire,2
682,Alaskan Husky,2
683,German Shepherd/Black Mouth Cur,2
684,Neapolitan Mastiff Mix,2
685,Rat Terrier/Cardigan Welsh Corgi,2
686,Pekingese/Shih Tzu,2
687,Akita/Mastiff,2
688,Border Terrier/Chihuahua Shorthair,2
689,Black/Tan Hound,2
690,Dachshund Longhair/Maltese,2
691,Basset Hound/Black/Tan Hound,2
692,Great Pyrenees/Australian Cattle Dog,2
693,Catahoula/Queensland Heeler,2
694,Dachshund Wirehair/Shih Tzu,2
695,English Foxhound/Labrador Retriever,2
696,Rottweiler/Australian Shepherd,2
697,Pit Bull/Dalmatian,2
698,Soft Coated Wheaten Terrier/Boxer,2
699,English Pointer Mix,2
700,Bullmastiff,2
701,Mastiff/Plott Hound,2
702,Bichon Frise/Miniature Poodle,2
703,Dachshund/Wire Hair Fox Terrier,2
704,Chihuahua Longhair/Miniature Poodle,2
705,Shih Tzu/Miniature Poodle,2
706,Greater Swiss Mountain Dog Mix,2
707,Welsh Springer Spaniel Mix,2
708,Whippet/Plott Hound,2
709,Pembroke Welsh Corgi/Labrador Retriever,2
710,Dogue De Bordeaux,2
711,Basenji/Australian Cattle Dog,2
712,Maltese/Border Collie,2
713,Jack Russell Terrier/Standard Schnauzer,2
714,Kuvasz Mix,2
715,Pembroke Welsh Corgi,2
716,Golden Retriever/Chow Chow,2
717,Chihuahua Shorthair/Schipperke,2
718,Boston Terrier/Pug,2
719,Basenji,2
720,Akita/Siberian Husky,2
721,Labrador Retriever/Finnish Spitz,2
722,Great Pyrenees/American Bulldog,2
723,Leonberger Mix,2
724,Catahoula/Doberman Pinsch,2
725,Miniature Poodle/Australian Cattle Dog,2
726,Australian Cattle Dog/Boston Terrier,2
727,Cairn Terrier/Dachshund,2
728,Blue Lacy/Beagle,2
729,Rat Terrier,2
730,Belgian Malinois,2
731,Chow Chow/Labrador Retriever,2
732,Cocker Spaniel/Pembroke Welsh Corgi,2
733,Plott Hound/Dachshund,2
734,Miniature Schnauzer/Yorkshire Terrier,2
735,Dachshund Longhair/Golden Retriever,2
736,Jack Russell Terrier/Yorkshire Terrier,2
737,Dachshund Longhair/Chihuahua Shorthair,2
738,Miniature Poodle/Shih Tzu,2
739,Cane Corso Mix,2
740,Miniature Poodle/Yorkshire Terrier,2
741,Australian Shepherd/Field Spaniel,2
742,German Wirehaired Pointer/Labrador Retriever,2
743,Standard Poodle/Labrador Retriever,2
744,Nova Scotia Duck Tolling Retriever Mix,2
745,Treeing Walker Coonhound/Plott Hound,2
746,Smooth Fox Terrier,2
747,English Foxhound Mix,2
748,Catahoula/Australian Cattle Dog,2
749,Mastiff/Pit Bull,2
750,Dogo Argentino/Pit Bull,2
751,St. Bernard Rough Coat Mix,2
752,Lhasa Apso/Pekingese,2
753,Tibetan Terrier,2
754,Australian Shepherd/Collie Smooth,2
755,Whippet/Catahoula,2
756,Cocker Spaniel/Labrador Retriever,2
757,Chihuahua Longhair/Dachshund Wirehair,2
758,Shih Tzu/Yorkshire Terrier,2
759,Toy Poodle/Miniature Schnauzer,2
760,Dachshund/Cardigan Welsh Corgi,2
761,German Shepherd/Pembroke Welsh Corgi,2
762,Whippet/Labrador Retriever,2
763,Pointer/Dalmatian,2
764,Pug/Boxer,2
765,Tibetan Spaniel,2
766,Catahoula/American Pit Bull Terrier,2
767,Greyhound/Border Collie,2
768,Jack Russell Terrier/Pembroke Welsh Corgi,2
769,Miniature Pinscher/Yorkshire Terrier,2
770,German Wirehaired Pointer,2
771,Siberian Husky/American Pit Bull Terrier,2
772,American Staffordshire Terrier/Labrador Retriever,2
773,Labrador Retriever/Akita,2
774,Belgian Malinois/Treeing Cur,2
775,Border Collie/Whippet,2
776,Silky Terrier/Yorkshire Terrier,2
777,Rat Terrier/Dachshund,2
778,Great Pyrenees/Golden Retriever,2
779,Miniature Schnauzer/Dachshund Longhair,2
780,Australian Shepherd/German Shepherd,2
781,Pit Bull/Belgian Malinois,2
782,Border Terrier/Yorkshire Terrier,2
783,Chihuahua Shorthair/Miniature Schnauzer,2
784,Anatol Shepherd/Catahoula,2
785,Chow Chow/Rottweiler,2
786,Saluki Mix,2
787,Doberman Pinsch/Labrador Retriever,2
788,German Shepherd/Vizsla,2
789,Rat Terrier/Smooth Fox Terrier,2
790,Chihuahua Shorthair/Cairn Terrier,2
791,Pomeranian/Cocker Spaniel,2
792,Old English Bulldog,2
793,Queensland Heeler/Labrador Retriever,2
794,Boxer/German Shepherd,2
795,Great Pyrenees/Kuvasz,2
796,Maltese/Standard Poodle,2
797,Bichon Frise/Pekingese,2
798,Papillon/Shih Tzu,2
799,Australian Cattle Dog/Dalmatian,2
800,Boxer/Staffordshire,2
801,Miniature Schnauzer/Dachshund Wirehair,2
802,Miniature Schnauzer/Dachshund,2
803,Black Mouth Cur/Boxer,2
804,Keeshond Mix,2
805,Cardigan Welsh Corgi/Australian Cattle Dog,2
806,Border Collie/Australian Shepherd,2
807,Collie Rough/Chow Chow,2
808,Australian Kelpie/Catahoula,2
809,Mexican Hairless,2
810,Pembroke Welsh Corgi/Chinese Sharpei,2
811,Collie Smooth/German Shepherd,2
812,Yorkshire Terrier/Pomeranian,2
813,Siberian Husky/Pit Bull,2
814,Afghan Hound/Labrador Retriever,2
815,Bichon Frise,2
816,Basset Hound/Great Pyrenees,2
817,Staffordshire/Border Collie,2
818,Border Collie/Staffordshire,2
819,Australian Shepherd/Catahoula,2
820,Catahoula/Harrier,2
821,Great Dane/Pointer,2
822,Beagle/Whippet,2
823,Beagle/Mastiff,2
824,Golden Retriever/Catahoula,2
825,Golden Retriever/Labrador Retriever,2
826,Welsh Springer Spaniel/Labrador Retriever,2
827,Australian Kelpie/Labrador Retriever,2
828,Australian Cattle Dog/American Pit Bull Terrier,2
829,Cardigan Welsh Corgi/Dachshund,2
830,Weimaraner/Labrador Retriever,2
831,Lhasa Apso/Jack Russell Terrier,2
832,Border Terrier/Rat Terrier,2
833,Shetland Sheepdog,2
834,Australian Cattle Dog/Whippet,2
835,St. Bernard Rough Coat/Great Pyrenees,2
836,Miniature Schnauzer/Maltese,2
837,Rat Terrier/Border Collie,2
838,Dachshund Longhair/Cocker Spaniel,2
839,St. Bernard Smooth Coat,2
840,Rat Terrier/Pekingese,2
841,Doberman Pinsch/Pit Bull,2
842,Labrador Retriever/German Shorthair Pointer,2
843,American Bulldog/Dalmatian,2
844,Rat Terrier/American Pit Bull Terrier,2
845,Mastiff/American Pit Bull Terrier,2
846,Alaskan Husky/Labrador Retriever,2
847,Dachshund/Norfolk Terrier,2
848,English Springer Spaniel Mix,2
849,Dogo Argentino Mix,2
850,Dachshund Wirehair/West Highland,2
851,Smooth Fox Terrier/Labrador Retriever,2
852,Yorkshire Terrier/Shih Tzu,2
853,Standard Poodle/Jack Russell Terrier,2
854,Dachshund Wirehair/Norfolk Terrier,2
855,German Shepherd/Redbone Hound,2
856,English Coonhound/German Shepherd,2
857,Golden Retriever/Australian Shepherd,2
858,Bichon Frise/Toy Poodle,2
859,Treeing Tennesse Brindle Mix,2
860,Bluetick Hound,2
861,Boxer/Whippet,2
862,English Setter Mix,2
863,Labrador Retriever/Greyhound,2
864,Bloodhound/Labrador Retriever,2
865,Jindo,2
866,German Shepherd/Ibizan Hound,2
867,Labrador Retriever/American Bulldog,2
868,Plott Hound/Border Collie,2
869,Pit Bull/French Bulldog,2
870,Pointer/Border Collie,2
871,German Shorthair Pointer,2
872,Beagle/Chinese Sharpei,2
873,Jack Russell Terrier/Australian Shepherd,2
874,Border Collie/Australian Kelpie,2
875,German Shepherd/Border Collie,2
876,Anatol Shepherd/Akita,2
877,Cavalier Span/Chihuahua Shorthair,2
878,Blue Lacy/Labrador Retriever,2
879,Pharaoh Hound,2
880,Australian Cattle Dog/Great Pyrenees,2
881,Australian Shepherd/Queensland Heeler,2
882,Australian Shepherd/Nova Scotia Duck Tolling Retriever,2
883,English Pointer/Boxer,2
884,Skye Terrier Mix,2
885,Labrador Retriever/Mastiff,2
886,Norfolk Terrier,2
887,Catahoula/Australian Shepherd,2
888,Dachshund/Whippet,2
889,Anatol Shepherd/German Shorthair Pointer,2
890,Plott Hound/Beagle,2
891,Standard Schnauzer/Standard Poodle,2
892,Rottweiler/Blue Lacy,2
893,Yorkshire Terrier/Standard Poodle,2
894,Landseer Mix,2
895,Australian Cattle Dog/Rhod Ridgeback,2
896,Great Pyrenees/English Pointer,2
897,Dachshund/Catahoula,2
898,Chihuahua Shorthair/Shih Tzu,2
899,Border Collie/German Shorthair Pointer,2
900,Chihuahua Shorthair/Australian Terrier,2
901,Dutch Shepherd/Plott Hound,2
902,Labrador Retriever/Weimaraner,2
903,Vizsla/Greyhound,2
904,Labrador Retriever/Alaskan Husky,2
905,Collie Smooth/Australian Kelpie,2
906,Australian Shepherd/Great Pyrenees,2
907,Dachshund Longhair/Tibetan Spaniel,2
908,Pit Bull/Chow Chow,2
909,Australian Shepherd/Plott Hound,2
910,Dandie Dinmont Mix,2
911,Alaskan Husky/German Shepherd,2
912,Yorkshire Terrier/Bruss Griffon,2
913,Miniature Poodle/Jack Russell Terrier,2
914,Soft Coated Wheaten Terrier/Yorkshire Terrier,2
915,Whippet/German Shepherd,2
916,Beagle/Pug,2
917,Blue Lacy/Chinese Sharpei,2
918,Great Pyrenees/Dalmatian,2
919,Pit Bull/Weimaraner,2
920,Cardigan Welsh Corgi/Miniature Schnauzer,2
921,Black/Tan Hound/Beagle,2
922,Chihuahua Longhair/Rat Terrier,2
923,German Shepherd/Pointer,2
924,Rottweiler/Staffordshire,2
925,Rat Terrier/Lhasa Apso,2
926,Rottweiler/Plott Hound,2
927,Beagle/Pit Bull,2
928,Standard Schnauzer/Labrador Retriever,2
929,Tibetan Spaniel/Chihuahua Longhair,2
930,Chinese Sharpei/Rottweiler,2
931,Brittany,2
932,Collie Rough/Great Pyrenees,2
933,Chinese Sharpei/Rhod Ridgeback,2
934,Dalmatian/Plott Hound,2
935,Labrador Retriever/Cardigan Welsh Corgi,2
936,Black Mouth Cur/Labrador Retriever,2
937,Border Collie/Bernese Mountain Dog,2
938,Pit Bull/Bull Terrier,2
939,Cardigan Welsh Corgi/American Staffordshire Terrier,2
940,Airedale Terrier/Otterhound,2
941,Staffordshire/Australian Cattle Dog,2
942,Pit Bull/Alaskan Husky,2
943,Pit Bull/Boston Terrier,2
944,American Staffordshire Terrier/Rottweiler,2
945,Labrador Retriever/Standard Poodle,2
946,Beagle/Miniature Pinscher,2
947,Cardigan Welsh Corgi/Australian Kelpie,2
948,German Shepherd/Black/Tan Hound,2
949,Basset Hound/Dachshund,2
950,Catahoula/German Shepherd,2
951,Keeshond/Finnish Spitz,2
952,Border Terrier,2
953,Manchester Terrier/Basenji,2
954,Labrador Retriever/Staffordshire,2
955,Golden Retriever/Beagle,2
956,Queensland Heeler/Cardigan Welsh Corgi,2
957,Labrador Retriever/Rat Terrier,2
958,Cardigan Welsh Corgi/Labrador Retriever,2
959,Chihuahua Shorthair/Catahoula,2
960,Golden Retriever/Border Terrier,2
961,Pomeranian/Beagle,2
962,German Shepherd/Nova Scotia Duck Tolling Retriever,2
963,Yorkshire Terrier/Dachshund,2
964,Catahoula/Border Collie,2
965,Norfolk Terrier/Pug,2
966,Chesa Bay Retr Mix,2
967,Dachshund Wirehair/Chihuahua Shorthair,2
968,Australian Shepherd/Basset Hound,2
969,Squirrel,3
970,Bat Mix,3
971,Raccoon,3
972,Bat,3
973,Opossum Mix,3
974,Rabbit Sh Mix,3
975,Opossum,3
976,Raccoon Mix,3
977,Armadillo Mix,3
978,Ferret,3
979,Californian,3
980,Squirrel Mix,3
981,Fox,3
982,Ferret Mix,3
983,Havana Mix,3
984,Skunk Mix,3
985,Guinea Pig Mix,3
986,Skunk,3
987,Rabbit Lh Mix,3
988,Fox Mix,3
989,Californian Mix,3
990,Lionhead Mix,3
991,Rat,3
992,Guinea Pig,3
993,Hedgehog,3
994,Rex Mix,3
995,Coyote,3
996,Snake Mix,3
997,English Spot Mix,3
998,Armadillo,3
999,Chinchilla-Amer Mix,3
1000,Lizard Mix,3
1001,Turtle Mix,3
1002,Rabbit Sh,3
1003,Hamster,3
1004,Hotot Mix,3
1005,Chinchilla-Stnd Mix,3
1006,Tortoise Mix,3
1007,Polish Mix,3
1008,Gerbil Mix,3
1009,Lop-Mini,3
1010,American Mix,3
1011,Cottontail Mix,3
1012,Otter Mix,3
1013,Lop-English Mix,3
1014,English Spot,3
1015,Netherlnd Dwarf Mix,3
1016,Rat Mix,3
1017,Harlequin Mix,3
1018,Lop-Holland Mix,3
1019,Netherlnd Dwarf,3
1020,Chinchilla Mix,3
1021,Tortoise,3
1022,Hamster Mix,3
1023,Rex-Mini/Lop-English,3
1024,Angora-English Mix,3
1025,Cinnamon Mix,3
1026,Lionhead,3
1027,Rex,3
1028,Lop-Amer Fuzzy Mix,3
1029,Rex-Mini,3
1030,Rex-Mini Mix,3
1031,Dutch Mix,3
1032,Dutch/Angora-Satin,3
1033,Tropical Mix,3
1034,Coyote Mix,3
1035,Flemish Giant,3
1036,Deer Mix,3
1037,American,3
1038,Belgian Hare,3
1039,Cinnamon,3
1040,Lop-Mini Mix,3
1041,Lizard,3
1042,Checkered Giant Mix,3
1043,Snake,3
1044,Cold Water,3
1045,Britannia Petit Mix,3
1046,Himalayan Mix,3
1047,Lop-Holland,3
1048,Chicken,4
1049,Parakeet Mix,4
1050,Dove Mix,4
1051,Chicken Mix,4
1052,Duck Mix,4
1053,Peafowl,4
1054,Pigeon Mix,4
1055,Vulture Mix,4
1056,Bluebird Mix,4
1057,Grackle Mix,4
1058,Peafowl Mix,4
1059,Owl Mix,4
1060,Grackle,4
1061,Mockingbird Mix,4
1062,Heron Mix,4
1063,Quaker,4
1064,Cockatoo,4
1065,Heron,4
1066,Cockatoo Mix,4
1067,African Mix,4
1068,Cockatiel Mix,4
1069,Quaker Mix,4
1070,Bantam Mix,4
1071,Rhode Island Mix,4
1072,Turkey Mix,4
1073,Pigeon,4
1074,Hawk Mix,4
1075,Owl,4
1076,Hawk,4
1077,Barred Rock Mix,4
1078,Parakeet,4
1079,Crow Mix,4
1080,Duck,4
1081,Muscovy Mix,4
1082,Sparrow Mix,4
1083,Muscovy,4
1084,Song Bird Mix,4
1085,Parrot Mix,4
1086,Pheasant Mix,4
1087,Leghorn Mix,4
