id,name
1,Brown Tabby
2,Blue Tabby
3,Tan
4,Black/White
5,Black
6,White
7,Brown/Black
8,White/Black
9,Brown Brindle/White
10,Blue
11,Brown
12,Red
13,Red/White
14,Tan/White
15,Chocolate/White
16,White/Brown Brindle
17,Brown Tabby/White
18,Fawn/White
19,Calico
20,Torbie
21,Black/Brown
22,Fawn
23,Red Merle/White
24,Cream Tabby/White
25,Gray/White
26,Brown/White
27,Brown/Tan
28,Buff/White
29,Sable
30,Blue Merle/White
31,Blue/White
32,Lynx Point
33,Yellow
34,Black Brindle
35,Red/Cream
36,Gray Tabby
37,Tortie Point
38,Orange Tabby
39,Black/Gray
40,Gray/Black
41,Cream Tabby
42,Brown Brindle
43,Blue Merle/Tan
44,Black Tabby
45,Buff
46,Black Brindle/White
47,Tortie
48,Tricolor
49,Blue Merle
50,Blue Tabby/White
51,Flame Point
52,Gray
53,White/Brown
54,Gold
55,Chocolate
56,Orange Tabby/White
57,Yellow/White
58,Tan/Black
59,Blue/Tortie
60,Silver
61,Black/Tan
62,Tortie/Blue
63,Brown/Cream
64,White/Tan
65,Calico/White
66,Cream
67,Tan/Brown
68,White/Gray
69,Red/Black
70,White/Red Merle
71,Tricolor/Red Tick
72,Black/Brown Brindle
73,Brown/Gray
74,Seal Point/White
75,Cream/White
76,Black Tabby/White
77,Brown Tabby/Black
78,White/White
79,Silver Tabby
80,Red/Tan
81,White/Tricolor
82,Torbie/White
83,Chocolate/Tan
84,Blue/Gray
85,Blue Cream
86,Black/Tricolor
87,Tan/Red
88,Sable/White
89,Gray/Tan
90,Black/Orange
91,Chocolate Point/White
92,Calico/Black
93,Black/Red
94,Gray/Tortie
95,Apricot
96,Seal Point
97,Black/Silver
98,Gray Tabby/White
99,White/Blue
100,Lynx Point/White
101,Silver Tabby/White
102,White/Brown Tabby
103,Lilac Point
104,Orange/White
105,Silver/Gray
106,White/Black Tabby
107,White/Orange Tabby
108,White/Red
109,Orange
110,Calico/Brown Tabby
111,Brown Tiger
112,Tan/Tricolor
113,Red/Brown
114,Blue Point
115,Tricolor/Black
116,White/Black Brindle
117,Brown Merle/Tan
118,Brown/Red
119,Yellow Brindle
120,Blue Tick/Tan
121,White/Gray Tabby
122,Black/Yellow Brindle
123,Tortie Point/White
124,Black/Chocolate
125,Sable/Cream
126,Brown Merle/White
127,Tricolor/White
128,White/Cream Tabby
129,White/Buff
130,Tortie/White
131,Blue Tiger/White
132,Yellow Brindle/White
133,Blue/Tricolor
134,Fawn/Tricolor
135,White/Cream
136,Chocolate Point
137,Blue/Tan
138,Brown/Silver
139,White/Chocolate
140,Blue/Black
141,Calico Point
142,Red Tick
143,Blue Tick
144,Blue Tick/Black
145,Tan/Gray
146,Tan/Cream
147,Brown Tabby/Orange Tabby
148,Black/Blue Tick
149,Flame Point/Cream
150,Agouti/White
151,White/Silver
152,Orange Tabby/Brown
153,Green/Blue
154,Tan/Buff
155,Brown/Green
156,White/Orange
157,Black/Black
158,Brown Tabby/Blue
159,Silver/Blue
160,Orange/Blue
161,Red Merle
162,Cream/Tan
163,Brown Brindle/Brown
164,White/Yellow
165,Sable/Tan
166,Fawn/Black
167,Orange Tabby/Cream
168,Cream/Black
169,Brown/Yellow
170,Sable/Black
171,Silver/Tan
172,Tan/Silver
173,White/Lynx Point
174,Black Smoke/White
175,Sable/Red
176,Chocolate/Yellow
177,Torbie/Brown Tabby
178,Black Smoke
179,Blue/Brown
180,Silver/Brown
181,Brown Merle
182,White/Liver
183,Buff/Gray
184,White/Blue Tick
185,Gold/White
186,White/Blue Tabby
187,Tan/Blue
188,Black/Gold
189,Black/Cream
190,Blue Tabby/Cream
191,Tricolor/Orange
192,Brown Brindle/Black
193,White/Red Tick
194,Cream/Brown
195,Black/Tortie
196,Brown Tabby/Orange
197,Flame Point/White
198,White/Tortie
199,Gray/Brown
200,Gold/Cream
201,Lynx Point/Tan
202,Buff/Black
203,Green
204,Red Tick/White
205,Black/Blue
206,Yellow/Orange
207,Black/Blue Merle
208,Buff/Tan
209,Tricolor/Brown
210,Torbie/Blue Cream
211,Black/Brown Tabby
212,Cream/Silver
213,Chocolate/Black
214,Black/Buff
215,Pink
216,Blue Smoke
217,Green/Yellow
218,Silver/White
219,White/Blue Merle
220,Black Smoke/Blue Tick
221,White/Black Smoke
222,Brown/Tricolor
223,Agouti
224,Sable/Brown
225,Blue Tiger
226,Blue Merle/Red Merle
227,Torbie/Gray
228,Tan/Tan
229,Brown Tabby/Brown Tabby
230,Cream Tabby/Cream Tabby
231,Tortie/Blue Tabby
232,Orange Tabby/Orange
233,Blue/Blue
234,Cream/Cream
235,Calico/Calico
236,Fawn/Tan
237,Chocolate/Brown
238,Gray/Pink
239,Gold/Gold
240,Orange Tabby/Orange Tabby
241,Brown/Brown
242,Silver Lynx Point
243,Cream/Seal Point
244,Fawn/Blue
245,Calico/Blue Cream
246,Gray/Red
247,Red Tick/Tan
248,Gray/Yellow
249,Silver/Black
250,Brown Brindle/Tan
251,White/Brown Merle
252,Tricolor/Brown Brindle
253,Black Brindle/Black
254,Blue Tick/White
255,Tan/Yellow
256,White/Calico
257,Red/Yellow
258,Liver/Tan
259,Black/Black Brindle
260,Brown Tabby/Tortie
261,Black/Gray Tabby
262,Silver Lynx Point/Gray
263,Seal Point/Gray
264,Black/Yellow
265,Liver/White
266,Gray/Orange
267,Blue/Silver
268,Gray/Cream
269,Gold/Black
270,Apricot/White
271,Fawn/Brown
272,Tortie/Black
273,Black/Seal Point
274,White/Calico Point
275,White/Liver Tick
276,Black Smoke/Brown
277,Brown Tabby/Cream
278,Brown/Brown Brindle
279,Blue Cream/Tortie
280,Brown Tabby/Brown
281,Fawn/Gray
282,Yellow/Cream
283,Liver/Chocolate
284,Brown/Chocolate
285,Gray/Blue
286,Silver/Red
287,Blue Smoke/Gray
288,Cream/Orange
289,Blue Smoke/White
290,Black Smoke/Gray
291,Brown/Brown Tabby
292,Brown Tiger/White
293,Brown/Red Tick
294,Orange/Tan
295,White/Fawn
296,Green/Black
297,White/Apricot
298,Orange/Gray
299,Orange/Black
300,Cream/Red
301,Buff/Yellow
302,Blue Merle/Brown
303,Liver Tick
304,Tricolor/Tan
305,Buff/Red
306,Chocolate/Tricolor
307,Brown/Pink
308,Yellow/Orange Tabby
309,Blue Cream/White
310,Yellow/Black
311,Blue Merle/Black
312,Red/Gray
313,White/Lilac Point
314,Chocolate/Red
315,Red Merle/Black
316,White/Seal Point
317,Black/Black Tabby
318,Gray/Gold
319,Brown/Buff
320,Blue/Green
321,Green/Red
322,Lilac Point/White
323,Yellow/Tan
324,Calico/Brown
325,Cream/Brown Merle
326,Red Merle/Brown Merle
327,Torbie/Black
328,Brown Merle/Brown Tabby
329,Blue/Orange
330,Calico/Orange
331,Black Tabby/Gray Tabby
332,Black Tiger
333,Black Brindle/Blue
334,Cream Tabby/Orange
335,Gold/Tan
336,Tortie/Tortie
337,Brown Tiger/Brown
338,Green/White
339,White/Silver Tabby
340,Blue Merle/Blue Merle
341,Blue Tabby/Buff
342,White/Blue Cream
343,Gray/Gray
344,Silver/Cream
345,Cream/Blue Point
346,Torbie/Silver Tabby
347,Lynx Point/Blue
348,Calico Point/White
349,Torbie/Blue Tabby
350,Blue Tabby/Black
351,Gray Tabby/Black
352,Brown Merle/Black
353,Blue/Brown Brindle
354,Gray Tabby/Orange
355,Green/Gray
356,Seal Point/Buff
357,Brown/Apricot
358,Blue Point/Cream
359,Calico Point/Gray
360,Brown/Black Brindle
361,Seal Point/Cream
362,Tricolor/Blue
363,Black Brindle/Brown
364,Black Tabby/Gray
365,Red/Red
366,Calico/Gray Tabby
367,Red Tick/Brown Brindle
368,White/Green
369,Tortie Point/Blue
370,Gold/Brown
371,Buff/Brown
372,Cream Tabby/Orange Tabby
373,Blue Merle/Tricolor
374,Blue Tick/Tricolor
375,Gray/Fawn
376,Silver Lynx Point/White
377,Tricolor/Blue Merle
378,Brown Merle/Brown
379,Cream/Yellow
380,White/Black Tiger
381,Gray Tabby/Gray
382,Gray/Tricolor
383,Black Smoke/Black Tiger
384,Gold/Gray
385,Tan/Red Tick
386,White/Gold
387,Red Merle/Red Merle
